<?xml version="1.0" encoding="utf-8"?>
<!-- Generator: Adobe Illustrator 22.1.0, SVG Export Plug-In . SVG Version: 6.00 Build 0)  -->
<svg version="1.1" id="copy" xmlns="http://www.w3.org/2000/svg" xmlns:xlink="http://www.w3.org/1999/xlink" x="0px" y="0px"
	 viewBox="0 0 488.3 488.3" enable-background="new 0 0 488.3 488.3" xml:space="preserve">
<g>
	<g>
		<path d="M314.3,85.4h-227c-21.3,0-38.6,17.3-38.6,38.6v325.7c0,21.3,17.3,38.6,38.6,38.6h227c21.3,0,38.6-17.3,38.6-38.6V124
			C352.8,102.7,335.5,85.4,314.3,85.4z M325.8,449.6c0,6.4-5.2,11.6-11.6,11.6h-227c-6.4,0-11.6-5.2-11.6-11.6V124
			c0-6.4,5.2-11.6,11.6-11.6h227c6.4,0,11.6,5.2,11.6,11.6V449.6z"/>
		<path d="M401,0H174c-21.3,0-38.6,17.3-38.6,38.6c0,7.5,6,13.5,13.5,13.5s13.5-6,13.5-13.5c0-6.4,5.2-11.6,11.6-11.6h227
			c6.4,0,11.6,5.2,11.6,11.6v325.7c0,6.4-5.2,11.6-11.6,11.6c-7.5,0-13.5,6-13.5,13.5s6,13.5,13.5,13.5c21.3,0,38.6-17.3,38.6-38.6
			V38.6C439.6,17.3,422.4,0,401,0z"/>
	</g>
</g>
<g id="link">
	<path d="M298.6,218.2l-27.3-27.1c-12.1-11.9-31.7-12-43.8-0.1l-30.3,29.6c-12.2,11.8-12.2,31.1-0.1,43.1l17.4-16.6
		c-1.7-5.3,0.4-11.4,4.7-15.6l19.3-18.8c6.1-6,15.9-5.9,21.9,0.1l16.4,16.2c6,6,6,15.6-0.1,21.6l-19.3,18.8
		c-4.1,3.9-10.8,6.2-16,4.8l-17,16.6c12.1,11.9,31.7,12,43.8,0.1l30.3-29.5C310.7,249.4,310.7,230.1,298.6,218.2z"/>
	<path d="M187.6,326.4c1.4,5.2-0.8,11.9-5.1,15.9l-18,17.6c-6.2,6-16.2,6-22.3-0.1l-16.8-16.5c-6.2-6.1-6.1-15.9,0.1-21.9l18.1-17.6
		c4.4-4.3,10.7-6.4,16.2-4.6l17.4-17.2c-12.3-12.1-32.3-12.2-44.7-0.1l-29.3,28.6c-12.4,12.1-12.4,31.7-0.1,43.9l27.8,27.5
		c12.3,12.1,32.3,12.2,44.7,0.1l29.3-28.6c12.4-12.1,12.4-31.7,0.1-43.9L187.6,326.4z"/>
	<path d="M168.6,318.6c4.1,4.1,10.8,4.1,15,0.1l50-49.7c4.1-4.1,4.2-10.8,0.1-15c-4.1-4.1-10.8-4.1-15-0.1l-50,49.7
		C164.5,307.7,164.5,314.4,168.6,318.6z"/>
</g>
</svg>
