<?xml version="1.0" encoding="utf-8"?>
<!-- Generator: Adobe Illustrator 21.1.0, SVG Export Plug-In . SVG Version: 6.00 Build 0)  -->
<svg version="1.1" id="Layer_1" xmlns="http://www.w3.org/2000/svg" xmlns:xlink="http://www.w3.org/1999/xlink" x="0px" y="0px"
	 viewBox="0 0 44 72.9" style="enable-background:new 0 0 44 72.9;" xml:space="preserve">
<style type="text/css">
	.st0{fill:#5DD0FF;}
	.st1{fill:none;stroke:#000000;stroke-miterlimit:10;}
</style>
<image style="overflow:visible;enable-background:new;" width="18" height="18" transform="matrix(1 0 0 1 -8171 -8155.375)">
</image>
<polygon class="st0" points="7.7,72.6 1.3,66.3 31.1,36.5 1.3,6.7 7.7,0.3 43.8,36.5 "/>
<path class="st1" d="M21.5,36.5"/>
</svg>
