<?xml version="1.0" encoding="utf-8"?>
<!-- Generator: Adobe Illustrator 21.1.0, SVG Export Plug-In . SVG Version: 6.00 Build 0)  -->
<svg version="1.1" id="Layer_1" xmlns="http://www.w3.org/2000/svg" xmlns:xlink="http://www.w3.org/1999/xlink" x="0px" y="0px"
	 viewBox="0 0 123 123" style="enable-background:new 0 0 123 123;" xml:space="preserve">
<style type="text/css">
	.st0{fill:#FFFFFF;}
	.st1{fill:none;stroke:#60D4FF;stroke-width:11;stroke-linecap:round;}
</style>
<title>loading spinner</title>
<desc>Created with Sketch.</desc>
<g>
	<g id="Group-3" transform="translate(11.000000, 12.000000)">
		
			<image style="overflow:visible;opacity:0.75;" width="155" height="155" xlink:href="195A069380579253.png"  transform="matrix(1 0 0 1 -27 -28)">
		</image>
		<g>
			<g>
				<g>
					<path id="path-1_26_" class="st0" d="M50.5-0.5L50.5-0.5c27.6,0,50,22.4,50,50l0,0c0,27.6-22.4,50-50,50l0,0
						c-27.6,0-50-22.4-50-50l0,0C0.5,21.9,22.9-0.5,50.5-0.5z"/>
				</g>
				<g>
					<path id="path-1_25_" class="st0" d="M50.5-0.5L50.5-0.5c27.6,0,50,22.4,50,50l0,0c0,27.6-22.4,50-50,50l0,0
						c-27.6,0-50-22.4-50-50l0,0C0.5,21.9,22.9-0.5,50.5-0.5z"/>
				</g>
			</g>
		</g>
	</g>
	<g id="Rectangle-3" transform="translate(14.000000, 0.000000)">
		<path id="Mask_3_" class="st1" d="M11,61.5c0,10.2,4.1,19.3,10.8,26C28.4,94,37.5,98,47.5,98"/>
		<path id="Mask_2_" class="st1" d="M84,61.5c0-9.4-3.6-18-9.4-24.5c-6.7-7.4-16.3-12-27.1-12"/>
	</g>
</g>
</svg>
